…
# Load my package
library(ggupset)
```

In the following I will work with a tidy version of the movies dataset
from ggplot. It contains a list of all movies in IMDB, their release
data and other general information on the movie. It also includes a
`list` column that contains annotation to which genre a movie belongs
(Action, Drama, Romance etc.)

``` r
tidy_movies
#> # A tibble: 50,000 × 10
#>    title       year length budget rating votes mpaa  Genres stars percent_rating
#>    <chr>      <int>  <int>  <int>  <dbl> <int> <chr> <list> <dbl>          <dbl>
#>  1 Ei ist ei…  1993     90   NA      8.4    15 ""    <chr …     1            4.5
#>  2 Hamos sto…  1985    109   NA      5.5    14 ""    <chr …     1            4.5
#>  3 Mind Bend…  1963     99   NA      6.4    54 ""    <chr …     1            0  
#>  4 Trop (peu…  1998    119   NA      4.5    20 ""    <chr …     1           24.5
#>  5 Crystania…  1995     85   NA      6.1    25 ""    <chr …     1            0  
#>  6 Totale!, …  1991    102   NA      6.3   210 ""    <chr …     1            4.5
#>  7 Visibleme…  1995    100   NA      4.6     7 ""    <chr …     1           24.5
#>  8 Pang shen…  1976     85   NA      7.4     8 ""    <chr …     1            0  
#>  9 Not as a …  1955    135    2e6    6.6   223 ""    <chr …     1            4.5
#> 10 Autobiogr…  1994     87   NA      7.4     5 ""    <chr …     1            0  
#> # … with 49,990 more rows
```
…
We will now turn first turn this matrix into a tidy tibble and then plot
it

``` r
tidy_pathway_member <- gene_pathway_membership %>%
  as_tibble(rownames = "Pathway") %>%
  gather(Gene, Member, -Pathway) %>%
  filter(Member) %>%
  select(- Member)

tidy_pathway_member
#> # A tibble: 44 × 2
#>    Pathway             Gene  
#>    <chr>               <chr> 
#>  1 Chemokine Secretion Aco1  
#>  2 Citric Acid Cycle   Aco1  
#>  3 Citric Acid Cycle   Aco2  
#>  4 Chemokine Secretion Aif1  
#>  5 Chemokine Secretion Alox8 
#>  6 Mammalian Oogenesis Amh   
#>  7 Mammalian Oogenesis Bmpr1b
#>  8 Meiotic Cell Cycle  Cdc25a
#>  9 Meiotic Cell Cycle  Cdc25c
#> 10 Chemokine Secretion Chia1 
#> # … with 34 more rows
```

`tidy_pathway_member` is already a very good starting point for plotting
with `ggplot`. But we care about the genes that are members of multiple
pathways so we will aggregate the data by `Gene` and create a
`list`-column with the `Pathway` information.

``` r
tidy_pathway_member %>%
  group_by(Gene) %>%
  summarize(Pathways = list(Pathway))
#> # A tibble: 37 × 2
#>    Gene   Pathways 
#>    <chr>  <list>   
#>  1 Aco1   <chr [2]>
#>  2 Aco2   <chr [1]>
#>  3 Aif1   <chr [1]>
#>  4 Alox8  <chr [1]>
#>  5 Amh    <chr [1]>
#>  6 Bmpr1b <chr [1]>
#>  7 Cdc25a <chr [1]>
#>  8 Cdc25c <chr [1]>
#>  9 Chia1  <chr [1]>
#> 10 Csf1r  <chr [1]>
#> # … with 27 more rows
```
…
<img src="man/figures/README-unnamed-chunk-7-1.png" width="70%" />

## What if I need more flexibility?

The first important idea is to realize that a list column is just as
good as a character vector with the list elements collapsed

``` r
tidy_movies %>%
  distinct(title, year, length, .keep_all=TRUE) %>%
  mutate(Genres_collapsed = sapply(Genres, function(x) paste0(sort(x), collapse = "-"))) %>%
  select(title, Genres, Genres_collapsed)
#> # A tibble: 5,000 × 3
#>    title                                   Genres    Genres_collapsed  
#>    <chr>                                   <list>    <chr>             
#>  1 Ei ist eine geschissene Gottesgabe, Das <chr [1]> "Documentary"     
#>  2 Hamos sto aigaio                        <chr [1]> "Comedy"          
#>  3 Mind Benders, The                       <chr [0]> ""                
#>  4 Trop (peu) d'amour                      <chr [0]> ""                
#>  5 Crystania no densetsu                   <chr [1]> "Animation"       
#>  6 Totale!, La                             <chr [1]> "Comedy"          
#>  7 Visiblement je vous aime                <chr [0]> ""                
#>  8 Pang shen feng                          <chr [2]> "Action-Animation"
#>  9 Not as a Stranger                       <chr [1]> "Drama"           
#> 10 Autobiographia Dimionit                 <chr [1]> "Drama"           
#> # … with 4,990 more rows
```
…
<img src="man/figures/README-unnamed-chunk-15-1.png" width="70%" />

    #> [1] "tbl_df"     "tbl"        "data.frame"
    #> # A tibble: 336 × 7
    #>    labels                  single_label    id labels_split     at observed index
    #>    <ord>                   <ord>        <int> <list>        <dbl> <lgl>    <dbl>
    #>  1 ""                      Short            1 <chr [0]>    0.0124 FALSE        1
    #>  2 "Action"                Short            2 <chr [1]>    0.0332 FALSE        1
    #>  3 "Action-Animation"      Short            3 <chr [2]>    0.0539 FALSE        1
    #>  4 "Action-Animation-Roma… Short            4 <chr [3]>    0.0747 FALSE        1
    #>  5 "Action-Animation-Shor… Short            5 <chr [3]>    0.0954 TRUE         1
    #>  6 "Action-Comedy"         Short            6 <chr [2]>    0.116  FALSE        1
    #>  7 "Action-Comedy-Drama"   Short            7 <chr [3]>    0.137  FALSE        1
    #>  8 "Action-Comedy-Romance" Short            8 <chr [3]>    0.158  FALSE        1
    #>  9 "Action-Comedy-Short"   Short            9 <chr [3]>    0.178  TRUE         1
    #> 10 "Action-Documentary"    Short           10 <chr [2]>    0.199  FALSE        1
    #> # … with 326 more rows
…
<img src="man/figures/README-violinexample-1.png" width="70%" />

# Advanced examples

#### 1. Complex experimental design

The combination matrix axis can be used to show complex experimental
designs, where each sample got a combination of different treatments.

``` r
df_complex_conditions
#> # A tibble: 360 × 4
#>    KO    DrugA Timepoint response
#>    <lgl> <chr>     <dbl>    <dbl>
#>  1 TRUE  Yes           8     84.3
#>  2 TRUE  Yes           8    105. 
#>  3 TRUE  Yes           8     79.1
#>  4 TRUE  Yes           8    140. 
#>  5 TRUE  Yes           8    108. 
#>  6 TRUE  Yes           8     79.5
#>  7 TRUE  Yes           8    112. 
#>  8 TRUE  Yes           8    118. 
#>  9 TRUE  Yes           8    114. 
#> 10 TRUE  Yes           8     92.4
#> # … with 350 more rows
…
``` r
# Percentage of votes for n stars for top 12 genres
avg_rating <- tidy_movies %>%
  mutate(Genres_collapsed = sapply(Genres, function(x) paste0(sort(x), collapse="-"))) %>%
  mutate(Genres_collapsed = fct_lump(fct_infreq(as.factor(Genres_collapsed)), n=12)) %>%
  group_by(stars, Genres_collapsed) %>%
  summarize(percent_rating = sum(votes * percent_rating)) %>%
  group_by(Genres_collapsed) %>%
  mutate(percent_rating = percent_rating / sum(percent_rating)) %>%
  arrange(Genres_collapsed)
#> `summarise()` has grouped output by 'stars'. You can override using the `.groups` argument.

avg_rating
#> # A tibble: 130 × 3
#> # Groups:   Genres_collapsed [13]
#>    stars Genres_collapsed percent_rating
#>    <dbl> <fct>                     <dbl>
#>  1     1 Drama                    0.0437
#>  2     2 Drama                    0.0411
#>  3     3 Drama                    0.0414
#>  4     4 Drama                    0.0433
#>  5     5 Drama                    0.0506
#>  6     6 Drama                    0.0717
#>  7     7 Drama                    0.129 
#>  8     8 Drama                    0.175 
#>  9     9 Drama                    0.170 
#> 10    10 Drama                    0.235 
#> # … with 120 more rows
…
